%!PS-Adobe-2.0 EPSF-2.0
%%Title: /home/user/faks/2letnik/2semester/mm/mm-2dn/porocilo/secisce
%%Creator: Dia v0.97.3
%%CreationDate: Sun May  8 23:15:29 2016
%%For: user
%%Orientation: Portrait
%%Magnification: 1.0000
%%BoundingBox: 0 0 392 340
%%BeginSetup
%%EndSetup
%%EndComments
%%BeginProlog
[ /.notdef /.notdef /.notdef /.notdef /.notdef /.notdef /.notdef /.notdef /.notdef /.notdef
/.notdef /.notdef /.notdef /.notdef /.notdef /.notdef /.notdef /.notdef /.notdef /.notdef
/.notdef /.notdef /.notdef /.notdef /.notdef /.notdef /.notdef /.notdef /.notdef /.notdef
/.notdef /.notdef /space /exclam /quotedbl /numbersign /dollar /percent /ampersand /quoteright
/parenleft /parenright /asterisk /plus /comma /hyphen /period /slash /zero /one
/two /three /four /five /six /seven /eight /nine /colon /semicolon
/less /equal /greater /question /at /A /B /C /D /E
/F /G /H /I /J /K /L /M /N /O
/P /Q /R /S /T /U /V /W /X /Y
/Z /bracketleft /backslash /bracketright /asciicircum /underscore /quoteleft /a /b /c
/d /e /f /g /h /i /j /k /l /m
/n /o /p /q /r /s /t /u /v /w
/x /y /z /braceleft /bar /braceright /asciitilde /.notdef /.notdef /.notdef
/.notdef /.notdef /.notdef /.notdef /.notdef /.notdef /.notdef /.notdef /.notdef /.notdef
/.notdef /.notdef /.notdef /.notdef /.notdef /.notdef /.notdef /.notdef /.notdef /.notdef
/.notdef /.notdef /.notdef /.notdef /.notdef /.notdef /.notdef /.notdef /.notdef /.notdef
/space /exclamdown /cent /sterling /currency /yen /brokenbar /section /dieresis /copyright
/ordfeminine /guillemotleft /logicalnot /hyphen /registered /macron /degree /plusminus /twosuperior /threesuperior
/acute /mu /paragraph /periodcentered /cedilla /onesuperior /ordmasculine /guillemotright /onequarter /onehalf
/threequarters /questiondown /Agrave /Aacute /Acircumflex /Atilde /Adieresis /Aring /AE /Ccedilla
/Egrave /Eacute /Ecircumflex /Edieresis /Igrave /Iacute /Icircumflex /Idieresis /Eth /Ntilde
/Ograve /Oacute /Ocircumflex /Otilde /Odieresis /multiply /Oslash /Ugrave /Uacute /Ucircumflex
/Udieresis /Yacute /Thorn /germandbls /agrave /aacute /acircumflex /atilde /adieresis /aring
/ae /ccedilla /egrave /eacute /ecircumflex /edieresis /igrave /iacute /icircumflex /idieresis
/eth /ntilde /ograve /oacute /ocircumflex /otilde /odieresis /divide /oslash /ugrave
/uacute /ucircumflex /udieresis /yacute /thorn /ydieresis] /isolatin1encoding exch def
/cp {closepath} bind def
/c {curveto} bind def
/f {fill} bind def
/a {arc} bind def
/ef {eofill} bind def
/ex {exch} bind def
/gr {grestore} bind def
/gs {gsave} bind def
/sa {save} bind def
/rs {restore} bind def
/l {lineto} bind def
/m {moveto} bind def
/rm {rmoveto} bind def
/n {newpath} bind def
/s {stroke} bind def
/sh {show} bind def
/slc {setlinecap} bind def
/slj {setlinejoin} bind def
/slw {setlinewidth} bind def
/srgb {setrgbcolor} bind def
/rot {rotate} bind def
/sc {scale} bind def
/sd {setdash} bind def
/ff {findfont} bind def
/sf {setfont} bind def
/scf {scalefont} bind def
/sw {stringwidth pop} bind def
/tr {translate} bind def

/ellipsedict 8 dict def
ellipsedict /mtrx matrix put
/ellipse
{ ellipsedict begin
   /endangle exch def
   /startangle exch def
   /yrad exch def
   /xrad exch def
   /y exch def
   /x exch def   /savematrix mtrx currentmatrix def
   x y tr xrad yrad sc
   0 0 1 startangle endangle arc
   savematrix setmatrix
   end
} def

/mergeprocs {
dup length
3 -1 roll
dup
length
dup
5 1 roll
3 -1 roll
add
array cvx
dup
3 -1 roll
0 exch
putinterval
dup
4 2 roll
putinterval
} bind def
/dpi_x 300 def
/dpi_y 300 def
/conicto {
    /to_y exch def
    /to_x exch def
    /conic_cntrl_y exch def
    /conic_cntrl_x exch def
    currentpoint
    /p0_y exch def
    /p0_x exch def
    /p1_x p0_x conic_cntrl_x p0_x sub 2 3 div mul add def
    /p1_y p0_y conic_cntrl_y p0_y sub 2 3 div mul add def
    /p2_x p1_x to_x p0_x sub 1 3 div mul add def
    /p2_y p1_y to_y p0_y sub 1 3 div mul add def
    p1_x p1_y p2_x p2_y to_x to_y curveto
} bind def
/start_ol { gsave 1.1 dpi_x div dup scale} bind def
/end_ol { closepath fill grestore } bind def
28.346000 -28.346000 scale
-7.442123 -29.591253 translate
%%EndProlog


0.100000 slw
[] 0 sd
[] 0 sd
0 slc
0.000000 0.000000 1.000000 srgb
n 11.150000 27.000000 m 18.350000 22.050000 l s
0.100000 slw
[] 0 sd
[] 0 sd
0 slc
0.627451 0.627451 0.627451 srgb
n 18.318242 22.078984 m 21.179625 20.100706 l s
0.100000 slw
[] 0 sd
[] 0 sd
0 slc
n 7.511691 29.521685 m 11.176327 26.985687 l s
0.100000 slw
[] 0 sd
[] 0 sd
0 slc
0.000000 0.000000 1.000000 srgb
n 12.372346 20.357020 m 17.439688 26.630850 l s
0.100000 slw
[] 0 sd
[] 0 sd
0 slc
0.627451 0.627451 0.627451 srgb
n 10.246917 17.675723 m 12.235541 20.178006 l s
0.100000 slw
[] 0 sd
[] 0 sd
0 slc
n 17.471472 26.639501 m 19.543219 29.309632 l s
0.100000 slw
[1.000000] 0 sd
[1.000000] 0 sd
0 slc
0 slj
0.100000 slw
0 slc
0 slj
[1.000000] 0 sd
1.000000 0.000000 0.000000 srgb
n 12.224654 20.174165 0.192776 0.192776 0 360 ellipse f
n 12.224654 20.174165 0.192776 0.192776 0 360 ellipse cp s
0 slc
0 slj
[1.000000] 0 sd
n 12.224654 20.174165 0.192776 0.192776 0 360 ellipse cp s
0.100000 slw
[1.000000] 0 sd
[1.000000] 0 sd
0 slc
0 slj
0.100000 slw
0 slc
0 slj
[1.000000] 0 sd
n 11.201045 27.011712 0.192776 0.192776 0 360 ellipse f
n 11.201045 27.011712 0.192776 0.192776 0 360 ellipse cp s
0 slc
0 slj
[1.000000] 0 sd
n 11.201045 27.011712 0.192776 0.192776 0 360 ellipse cp s
0.100000 slw
[1.000000] 0 sd
[1.000000] 0 sd
0 slc
0 slj
0.100000 slw
0 slc
0 slj
[1.000000] 0 sd
n 18.374166 22.038348 0.192776 0.192776 0 360 ellipse f
n 18.374166 22.038348 0.192776 0.192776 0 360 ellipse cp s
0 slc
0 slj
[1.000000] 0 sd
n 18.374166 22.038348 0.192776 0.192776 0 360 ellipse cp s
0.100000 slw
[1.000000] 0 sd
[1.000000] 0 sd
0 slc
0 slj
0.100000 slw
0 slc
0 slj
[1.000000] 0 sd
n 17.490697 26.661566 0.192776 0.192776 0 360 ellipse f
n 17.490697 26.661566 0.192776 0.192776 0 360 ellipse cp s
0 slc
0 slj
[1.000000] 0 sd
n 17.490697 26.661566 0.192776 0.192776 0 360 ellipse cp s
0.000000 0.000000 0.000000 srgb
gsave 12.612554 19.778990 translate 0.035278 -0.035278 scale
start_ol
960 1728 moveto
960 384 lineto
1696 384 lineto
2071 384 2251 550 conicto
2432 716 2432 1057 conicto
2432 1401 2251 1564 conicto
2071 1728 1696 1728 conicto
960 1728 lineto
960 3136 moveto
960 2112 lineto
1639 2112 lineto
1975 2112 2139 2238 conicto
2304 2365 2304 2624 conicto
2304 2881 2139 3008 conicto
1975 3136 1639 3136 conicto
960 3136 lineto
448 3520 moveto
1673 3520 lineto
2222 3520 2519 3300 conicto
2816 3080 2816 2674 conicto
2816 2360 2658 2174 conicto
2500 1989 2193 1943 conicto
2549 1866 2746 1621 conicto
2944 1376 2944 1009 conicto
2944 526 2625 263 conicto
2306 0 1718 0 conicto
448 0 lineto
448 3520 lineto
end_ol grestore 
gsave 13.052142 19.778990 translate 0.035278 -0.035278 scale
start_ol
938 384 moveto
2643 384 lineto
2643 0 lineto
384 0 lineto
384 384 lineto
654 668 1119 1146 conicto
1584 1625 1704 1763 conicto
1931 2023 2021 2203 conicto
2112 2384 2112 2558 conicto
2112 2842 1913 3021 conicto
1715 3200 1397 3200 conicto
1171 3200 920 3104 conicto
669 3009 384 2816 conicto
384 3328 lineto
678 3455 933 3519 conicto
1188 3584 1400 3584 conicto
1959 3584 2291 3309 conicto
2624 3034 2624 2574 conicto
2624 2356 2540 2160 conicto
2457 1965 2237 1700 conicto
2177 1631 1852 1302 conicto
1528 974 938 384 conicto
end_ol grestore 
gsave 17.994423 26.263170 translate 0.035278 -0.035278 scale
start_ol
960 1728 moveto
960 384 lineto
1696 384 lineto
2071 384 2251 550 conicto
2432 716 2432 1057 conicto
2432 1401 2251 1564 conicto
2071 1728 1696 1728 conicto
960 1728 lineto
960 3136 moveto
960 2112 lineto
1639 2112 lineto
1975 2112 2139 2238 conicto
2304 2365 2304 2624 conicto
2304 2881 2139 3008 conicto
1975 3136 1639 3136 conicto
960 3136 lineto
448 3520 moveto
1673 3520 lineto
2222 3520 2519 3300 conicto
2816 3080 2816 2674 conicto
2816 2360 2658 2174 conicto
2500 1989 2193 1943 conicto
2549 1866 2746 1621 conicto
2944 1376 2944 1009 conicto
2944 526 2625 263 conicto
2306 0 1718 0 conicto
448 0 lineto
448 3520 lineto
end_ol grestore 
gsave 18.434011 26.263170 translate 0.035278 -0.035278 scale
start_ol
640 384 moveto
1408 384 lineto
1408 3136 lineto
576 2944 lineto
576 3328 lineto
1434 3520 lineto
1920 3520 lineto
1920 384 lineto
2688 384 lineto
2688 0 lineto
640 0 lineto
640 384 lineto
end_ol grestore 
gsave 10.440353 26.198328 translate 0.035278 -0.035278 scale
start_ol
1696 3047 moveto
1042 1280 lineto
2352 1280 lineto
1696 3047 lineto
1424 3520 moveto
1970 3520 lineto
3328 0 lineto
2827 0 lineto
2502 896 lineto
897 896 lineto
572 0 lineto
64 0 lineto
1424 3520 lineto
end_ol grestore 
gsave 10.877445 26.198328 translate 0.035278 -0.035278 scale
start_ol
640 384 moveto
1408 384 lineto
1408 3136 lineto
576 2944 lineto
576 3328 lineto
1434 3520 lineto
1920 3520 lineto
1920 384 lineto
2688 384 lineto
2688 0 lineto
640 0 lineto
640 384 lineto
end_ol grestore 
gsave 18.318632 21.140668 translate 0.035278 -0.035278 scale
start_ol
1696 3047 moveto
1042 1280 lineto
2352 1280 lineto
1696 3047 lineto
1424 3520 moveto
1970 3520 lineto
3328 0 lineto
2827 0 lineto
2502 896 lineto
897 896 lineto
572 0 lineto
64 0 lineto
1424 3520 lineto
end_ol grestore 
gsave 18.755723 21.140668 translate 0.035278 -0.035278 scale
start_ol
938 384 moveto
2643 384 lineto
2643 0 lineto
384 0 lineto
384 384 lineto
654 668 1119 1146 conicto
1584 1625 1704 1763 conicto
1931 2023 2021 2203 conicto
2112 2384 2112 2558 conicto
2112 2842 1913 3021 conicto
1715 3200 1397 3200 conicto
1171 3200 920 3104 conicto
669 3009 384 2816 conicto
384 3328 lineto
678 3455 933 3519 conicto
1188 3584 1400 3584 conicto
1959 3584 2291 3309 conicto
2624 3034 2624 2574 conicto
2624 2356 2540 2160 conicto
2457 1965 2237 1700 conicto
2177 1631 1852 1302 conicto
1528 974 938 384 conicto
end_ol grestore 
0.100000 slw
[1.000000] 0 sd
[1.000000] 0 sd
0 slc
0 slj
0.100000 slw
0 slc
0 slj
[1.000000] 0 sd
0.000000 1.000000 0.000000 srgb
n 15.351004 24.099653 0.192776 0.192776 0 360 ellipse f
n 15.351004 24.099653 0.192776 0.192776 0 360 ellipse cp s
0 slc
0 slj
[1.000000] 0 sd
n 15.351004 24.099653 0.192776 0.192776 0 360 ellipse cp s
0.000000 0.000000 0.000000 srgb
gsave 15.532665 23.209210 translate 0.035278 -0.035278 scale
start_ol
960 3136 moveto
960 1792 lineto
1552 1792 lineto
1881 1792 2060 1967 conicto
2240 2142 2240 2465 conicto
2240 2786 2060 2961 conicto
1881 3136 1552 3136 conicto
960 3136 lineto
448 3520 moveto
1552 3520 lineto
2145 3520 2448 3251 conicto
2752 2983 2752 2465 conicto
2752 1943 2448 1675 conicto
2145 1408 1552 1408 conicto
960 1408 lineto
960 0 lineto
448 0 lineto
448 3520 lineto
end_ol grestore 
showpage
